[
    {
        "title" : "SALUT LES COP'S",
        "body" : " Lorem ipsum dolor sit amet, consectetur adipiscing elit. Fusce sagittis augue et diam viverra, vitae consequat sapien viverra. Cras rutrum auctor elit, ac finibus elit pellentesque at. Etiam bibendum rutrum urna, quis interdum dui rhoncus in. Nullam a pretium diam. Suspendisse congue dui sed aliquam lacinia. In sed eros libero. Mauris bibendum quam vitae quam feugiat, eu tincidunt neque semper. Ut tempus metus et eros sagittis euismod. Nunc vitae enim eu felis hendrerit semper sed quis ante. Vivamus consectetur vel quam finibus cursus. Quisque viverra ipsum nec magna faucibus, quis finibus eros rhoncus. "
    },
    {
        "title" : "SALUT LES POTO",
        "body" : " Suspendisse potenti. Vivamus laoreet condimentum cursus. Suspendisse potenti. Ut leo magna, molestie vitae eleifend ut, viverra vel lectus. Nam in iaculis urna, vitae fringilla purus. Pellentesque scelerisque posuere consequat. Morbi enim erat, dignissim nec ante vitae, vehicula varius erat. Fusce dapibus massa vitae ipsum pulvinar malesuada. Ut egestas gravida lectus, ut venenatis diam aliquet quis. Phasellus aliquam nec ligula eget rutrum. Etiam rutrum eget arcu id sodales. Integer vitae aliquet purus, vel convallis ipsum. Praesent iaculis dictum purus, ut luctus dolor tempus vitae. Mauris egestas lectus justo, sed luctus felis vulputate id. Aliquam dictum consequat metus. "
    },
    {
        "title" : "SALUT LES COLO",
        "body" : " Ut hendrerit finibus turpis quis varius. Vivamus blandit velit dui, ac lacinia dolor vulputate nec. Aliquam non risus tempus augue pellentesque tincidunt ut vitae massa. Sed enim lorem, euismod sed volutpat convallis, euismod ac ipsum. Quisque maximus, ligula eget mollis cursus, sem massa placerat nunc, ut tincidunt nunc sapien nec dui. Sed mauris lacus, lacinia a velit id, vestibulum suscipit ex. Aliquam vitae consectetur magna. Suspendisse ante elit, dignissim in dapibus sit amet, hendrerit a velit. "
    },
    {
        "title" : "SALUT LES COLO",
        "body" : " Ut hendrerit finibus turpis quis varius. Vivamus blandit velit dui, ac lacinia dolor vulputate nec. Aliquam non risus tempus augue pellentesque tincidunt ut vitae massa. Sed enim lorem, euismod sed volutpat convallis, euismod ac ipsum. Quisque maximus, ligula eget mollis cursus, sem massa placerat nunc, ut tincidunt nunc sapien nec dui. Sed mauris lacus, lacinia a velit id, vestibulum suscipit ex. Aliquam vitae consectetur magna. Suspendisse ante elit, dignissim in dapibus sit amet, hendrerit a velit. "
    },
    {
        "title" : "SALUT LES COOL",
        "body" : " Suspendisse potenti. Vivamus laoreet condimentum cursus. Suspendisse potenti. Ut leo magna, molestie vitae eleifend ut, viverra vel lectus. Nam in iaculis urna, vitae fringilla purus. Pellentesque scelerisque posuere consequat. Morbi enim erat, dignissim nec ante vitae, vehicula varius erat. Fusce dapibus massa vitae ipsum pulvinar malesuada. Ut egestas gravida lectus, ut venenatis diam aliquet quis. Phasellus aliquam nec ligula eget rutrum. Etiam rutrum eget arcu id sodales. Integer vitae aliquet purus, vel convallis ipsum. Praesent iaculis dictum purus, ut luctus dolor tempus vitae. Mauris egestas lectus justo, sed luctus felis vulputate id. Aliquam dictum consequat metus. "
    },
    {
        "title" : "SALUT CES COOL",
        "body" : "  Sed bibendum dictum neque. Donec pellentesque ligula urna, in volutpat justo condimentum eget. Fusce venenatis scelerisque lorem, eu finibus quam varius a. Curabitur a nibh molestie, consectetur elit vel, ullamcorper tellus. Nam pharetra, arcu at suscipit faucibus, felis sem rhoncus elit, nec tempus nisi nulla egestas eros. Quisque in rutrum elit. Cras at ultricies magna. Donec at mauris eros. Mauris egestas a tellus vitae mollis. Lorem ipsum dolor sit amet, consectetur adipiscing elit. Nulla facilisi. Etiam maximus porttitor orci vel dapibus. Nunc quis gravida felis, in dapibus sem. Nunc tincidunt leo ac libero tristique, eget venenatis arcu fringilla. Phasellus congue neque magna, id ultricies velit aliquam sed. Quisque porta arcu lacus, et convallis felis imperdiet id. "
    }
]